…
    ℹ Use `spec()` to retrieve the full column specification for this data.
    ℹ Specify the column types or set `show_col_types = FALSE` to quiet this message.

``` r
df_cluster_trial |>
  group_by(uid) |>
  summarise(
    n = n(),
    click = sum(is_click),
    ctr = sum(is_click) / n()
  )
```

    # A tibble: 200 × 4
         uid     n click    ctr
       <dbl> <int> <dbl>  <dbl>
     1     0    85    32 0.376 
     2     1    64    10 0.156 
     3     2    51    34 0.667 
     4     3    27     5 0.185 
     5     4    31    11 0.355 
     6     5     5     5 1     
     7     6     8     8 1     
     8     7     2     2 1     
     9     8    18     1 0.0556
    10     9    81    63 0.778 
    # ℹ 190 more rows
…
