…
    Rows: 54 Columns: 7
    ── Column specification ────────────────────────────────────────────────────────
    Delimiter: ","
    chr (2): State, Quarter
    dbl (5): Rate, Quarter_Num, IsTreatmentGroup, AfterTreatment, IsTreatment

    ℹ Use `spec()` to retrieve the full column specification for this data.
    ℹ Specify the column types or set `show_col_types = FALSE` to quiet this message.

``` r
df_organ_donations_short
```

    # A tibble: 54 × 7
       State   Quarter  Rate Quarter_Num IsTreatmentGroup AfterTreatment IsTreatment
       <chr>   <chr>   <dbl>       <dbl>            <dbl>          <dbl>       <dbl>
     1 Alaska  Q22011  0.77            3                0              0           0
     2 Alaska  Q32011  0.78            4                0              1           0
     3 Arizona Q22011  0.226           3                0              0           0
     4 Arizona Q32011  0.250           4                0              1           0
     5 Califo… Q22011  0.274           3                1              0           0
     6 Califo… Q32011  0.264           4                1              1           1
     7 Colora… Q22011  0.674           3                0              0           0
     8 Colora… Q32011  0.672           4                0              1           0
     9 Connec… Q22011  0.395           3                0              0           0
    10 Connec… Q32011  0.403           4                0              1           0
    # ℹ 44 more rows
…
